…
``` r
# replace this with actual nfl route that has been transformed properly. Its incoming
fit_new_data(new_trajectory_data, nfl_em_results) %>%
  left_join(cluster_route_map, by = c("cluster_assigned" = "cluster"))
#> # A tibble: 120 x 5
#>    curve_i cluster           data cluster_assigned route_name
#>      <int>   <dbl> <list<df[,2]>>            <dbl> <chr>     
#>  1       1       1       [37 x 2]               26 deep_out  
#>  2       2       3       [44 x 2]               26 deep_out  
#>  3       3       1       [48 x 2]               26 deep_out  
#>  4       4       3       [36 x 2]               26 deep_out  
#>  5       5       2       [45 x 2]               26 deep_out  
#>  6       6       2       [39 x 2]               26 deep_out  
#>  7       7       3       [47 x 2]               26 deep_out  
#>  8       8       1       [47 x 2]               26 deep_out  
#>  9       9       2       [49 x 2]               26 deep_out  
#> 10      10       2       [46 x 2]               26 deep_out  
#> # ... with 110 more rows
```
…
routes_data <-
  routes_data %>%
  ungroup() %>%
  select(-row)


routes_data %>%
  mutate(curve_num = row_number()) %>%
  unnest(cols = c(data_same_sideline)) %>%
  select(curve_num, x, y) %>%
  fit_new_data(nfl_em_results) %>%
  left_join(cluster_route_map, by = c("cluster_assigned" = "cluster"))
#> # A tibble: 394 x 4
#>    curve_num           data cluster_assigned route_name
#>        <int> <list<df[,2]>>            <dbl> <chr>     
#>  1         1       [63 x 2]               30 dig/over  
#>  2         2       [63 x 2]                5 go/seam   
#>  3         3       [63 x 2]               27 corner    
#>  4         4       [63 x 2]               11 flat      
#>  5         5       [63 x 2]                5 go/seam   
#>  6         6       [45 x 2]               27 corner    
#>  7         7       [45 x 2]                4 flat      
#>  8         8       [45 x 2]                2 dig/over  
#>  9         9       [45 x 2]               18 flat      
#> 10        10       [45 x 2]               29 deep_out  
#> # ... with 384 more rows
```
